Runner examples
…
    slope = runner(
      x = df[df$Company.name == Company.name2[1], ],  
      k = "180 days", 
      lag = "5 days",
      idx = df$Date[df$Company.name == Company.name2[1]],
      at = Event_date,
      f = function(x) {
        coef(
          lm(stock_return ~ market_return, data = x)
        )[2]
      }
    )
  )

## # A tibble: 900 x 4
## # Groups:   Company.name2 [2]
##    Company.name2 Event_date intercept    slope
##    <fct>         <date>         <dbl>    <dbl>
##  1 AAPL          2017-10-29  -0.0291   0.0669 
##  2 AAPL          2019-04-08  -0.0701   0.0157 
##  3 AAPL          2017-08-05   0.0688  -0.00656
##  4 AAPL          2018-07-24   0.00725 -0.0304 
##  5 AAPL          2015-01-15   0.00982 -0.0998 
##  6 AAPL          2017-07-25   0.0686  -0.00609
##  7 AAPL          2015-11-23  -0.0482  -0.0269 
##  8 AAPL          2019-09-18  -0.0658   0.146  
##  9 AAPL          2016-07-04   0.00890 -0.00803
## 10 AAPL          2017-07-15   0.0691   0.00376
## #  with 890 more rows
